<svg width="2601" height="758" viewBox="0 0 2601 758" fill="none" xmlns="http://www.w3.org/2000/svg">
<g filter="url(#filter0_d)">
<path d="M438 0L871.013 750H4.9873L438 0Z" fill="#C4C4C4"/>
<path d="M5.85333 749.5L438 1L870.147 749.5H5.85333Z" stroke="white"/>
</g>
<path d="M226.6 594H252.08V525.12L283.72 491.24L358.2 594H387.32L299.96 473.88L371.08 398H357.08L252.08 508.32V398H226.6V594ZM448.257 398H429.217V594H441.537V434.12H442.657L529.177 597.36H534.217L622.697 435.24H623.817V594H649.297V398H629.977L539.257 566.28H538.137L448.257 398Z" fill="#343A40"/>
<path d="M200.908 659L220.748 715H225.548L240.828 671.24H241.228L256.028 715H260.748L280.588 659H276.908L260.348 705.72H260.028L244.428 659H240.988L225.068 705.48H224.748L208.268 659H200.908ZM292.561 659V715H328.721V710.6H299.841V687.16H324.641V683.48H299.841V663.4H328.721V659H292.561ZM340.686 715H360.766C364.339 715 367.353 714.547 369.806 713.64C372.259 712.68 374.233 711.453 375.726 709.96C377.219 708.467 378.286 706.787 378.926 704.92C379.619 703 379.966 701.08 379.966 699.16C379.966 696.12 379.299 693.693 377.966 691.88C376.686 690.067 375.139 688.68 373.326 687.72C371.513 686.76 369.646 686.12 367.726 685.8C365.806 685.48 364.259 685.293 363.086 685.24V684.92C364.953 684.92 366.713 684.573 368.366 683.88C370.019 683.133 371.459 682.2 372.686 681.08C373.966 679.907 374.979 678.573 375.726 677.08C376.473 675.533 376.846 673.907 376.846 672.2C376.846 670.707 376.526 669.187 375.886 667.64C375.246 666.093 374.259 664.68 372.926 663.4C371.646 662.12 369.966 661.08 367.886 660.28C365.859 659.427 363.459 659 360.686 659H340.686V715ZM347.966 711.48V687H356.766C359.379 687 361.646 687.347 363.566 688.04C365.486 688.733 367.059 689.667 368.286 690.84C369.566 692.013 370.499 693.373 371.086 694.92C371.726 696.467 372.046 698.093 372.046 699.8C372.046 701.667 371.699 703.32 371.006 704.76C370.366 706.2 369.486 707.427 368.366 708.44C367.246 709.453 365.913 710.227 364.366 710.76C362.873 711.24 361.273 711.48 359.566 711.48H347.966ZM347.966 683.48V662.52H357.726C359.806 662.52 361.566 662.813 363.006 663.4C364.499 663.987 365.699 664.76 366.606 665.72C367.566 666.68 368.259 667.773 368.686 669C369.113 670.227 369.326 671.453 369.326 672.68C369.326 674.227 369.006 675.667 368.366 677C367.779 678.333 366.926 679.48 365.806 680.44C364.739 681.4 363.486 682.147 362.046 682.68C360.659 683.213 359.166 683.48 357.566 683.48H347.966ZM422.345 715V659H440.745C445.172 659 449.225 659.72 452.905 661.16C456.585 662.547 459.732 664.493 462.345 667C465.012 669.453 467.065 672.387 468.505 675.8C469.999 679.213 470.745 682.893 470.745 686.84C470.745 690.947 469.972 694.733 468.425 698.2C466.932 701.613 464.852 704.573 462.185 707.08C459.572 709.587 456.505 711.533 452.985 712.92C449.465 714.307 445.705 715 441.705 715H422.345ZM429.625 711.48H438.425C442.799 711.48 446.505 710.76 449.545 709.32C452.639 707.827 455.172 705.907 457.145 703.56C459.119 701.213 460.559 698.6 461.465 695.72C462.372 692.787 462.825 689.88 462.825 687C462.825 683.8 462.292 680.733 461.225 677.8C460.159 674.813 458.585 672.2 456.505 669.96C454.479 667.667 451.945 665.853 448.905 664.52C445.865 663.187 442.372 662.52 438.425 662.52H429.625V711.48ZM482.717 659V715H518.877V710.6H489.997V687.16H514.797V683.48H489.997V663.4H518.877V659H482.717ZM524.202 700.84C524.309 703.133 524.896 705.213 525.962 707.08C527.082 708.947 528.576 710.547 530.442 711.88C532.362 713.16 534.602 714.173 537.162 714.92C539.722 715.613 542.522 715.96 545.562 715.96C548.656 715.96 551.429 715.587 553.882 714.84C556.389 714.093 558.522 713.027 560.282 711.64C562.042 710.253 563.402 708.573 564.362 706.6C565.322 704.627 565.802 702.44 565.802 700.04C565.802 696.733 564.976 694.04 563.322 691.96C561.669 689.827 559.589 688.067 557.082 686.68C554.629 685.24 551.936 684.04 549.002 683.08C546.122 682.12 543.429 681.107 540.922 680.04C538.469 678.973 536.416 677.747 534.762 676.36C533.109 674.973 532.282 673.133 532.282 670.84C532.282 669.56 532.549 668.36 533.082 667.24C533.669 666.12 534.496 665.16 535.562 664.36C536.682 663.507 538.042 662.84 539.642 662.36C541.242 661.827 543.082 661.56 545.162 661.56C548.629 661.56 551.562 662.307 553.962 663.8C556.416 665.24 557.856 667.533 558.282 670.68H563.722C563.402 668.707 562.682 666.947 561.562 665.4C560.442 663.8 559.029 662.467 557.322 661.4C555.616 660.28 553.669 659.453 551.482 658.92C549.349 658.333 547.109 658.04 544.762 658.04C542.309 658.04 539.962 658.36 537.722 659C535.536 659.64 533.589 660.573 531.882 661.8C530.229 663.027 528.896 664.573 527.882 666.44C526.922 668.307 526.442 670.44 526.442 672.84C526.442 675.987 527.242 678.52 528.842 680.44C530.442 682.36 532.442 683.96 534.842 685.24C537.296 686.52 539.936 687.613 542.762 688.52C545.589 689.427 548.202 690.467 550.602 691.64C553.056 692.76 555.082 694.147 556.682 695.8C558.282 697.453 559.082 699.667 559.082 702.44C559.082 705.907 557.802 708.44 555.242 710.04C552.736 711.64 549.376 712.44 545.162 712.44C541.802 712.44 539.109 712.013 537.082 711.16C535.056 710.253 533.509 709.187 532.442 707.96C531.376 706.733 530.656 705.48 530.282 704.2C529.909 702.867 529.696 701.747 529.642 700.84H524.202ZM584.042 659V715H591.322V659H584.042ZM664.693 690.04H648.853V693.32H657.813V707.8C655.413 709.347 652.959 710.493 650.453 711.24C647.946 711.987 645.093 712.36 641.893 712.36C637.679 712.36 633.999 711.72 630.853 710.44C627.706 709.16 625.093 707.4 623.013 705.16C620.933 702.867 619.359 700.173 618.293 697.08C617.279 693.933 616.773 690.493 616.773 686.76C616.773 683.08 617.253 679.693 618.213 676.6C619.226 673.507 620.719 670.84 622.693 668.6C624.666 666.36 627.066 664.627 629.893 663.4C632.773 662.173 636.106 661.56 639.893 661.56C642.399 661.56 644.746 661.827 646.933 662.36C649.119 662.893 651.066 663.587 652.773 664.44C654.479 665.293 655.866 666.28 656.933 667.4C658.053 668.467 658.773 669.56 659.093 670.68H664.853C664.373 669.507 663.546 668.2 662.373 666.76C661.253 665.267 659.706 663.88 657.733 662.6C655.759 661.32 653.306 660.253 650.373 659.4C647.493 658.493 644.079 658.04 640.133 658.04C635.599 658.04 631.413 658.68 627.573 659.96C623.786 661.24 620.506 663.08 617.733 665.48C614.959 667.88 612.799 670.84 611.253 674.36C609.706 677.827 608.933 681.773 608.933 686.2C608.933 689.987 609.519 693.667 610.693 697.24C611.919 700.76 613.759 703.933 616.213 706.76C618.719 709.533 621.893 711.773 625.733 713.48C629.573 715.133 634.159 715.96 639.493 715.96C643.493 715.96 647.039 715.533 650.133 714.68C653.226 713.773 655.786 712.787 657.813 711.72V715H664.693V690.04ZM724.243 659V701.8H723.923L679.523 658.04H679.123V715H682.803V672.2H683.123L727.523 715.96H727.923V659H724.243Z" fill="#343A40"/>
<line x1="134" y1="622.5" x2="742" y2="622.5" stroke="white"/>
<path d="M893 552H911.2V502.8L933.8 478.6L987 552H1007.8L945.4 466.2L996.2 412H986.2L911.2 490.8V412H893V552ZM1037.73 412V552H1055.93V490.2H1064.73C1068.46 490.2 1071.53 490.533 1073.93 491.2C1076.46 491.867 1078.73 493 1080.73 494.6C1082.73 496.2 1084.59 498.267 1086.33 500.8C1088.06 503.333 1090.13 506.467 1092.53 510.2L1108.33 533.6C1110.33 536.667 1112.26 539.467 1114.13 542C1116.13 544.533 1118.26 546.733 1120.53 548.6C1122.79 550.333 1125.33 551.733 1128.13 552.8C1131.06 553.867 1134.53 554.4 1138.53 554.4C1141.46 554.4 1143.86 554.267 1145.73 554C1147.59 553.733 1149.46 553.067 1151.33 552V544.6C1150.66 544.733 1149.99 544.867 1149.33 545C1148.66 545 1147.99 545 1147.33 545C1144.53 545 1142.06 544.6 1139.93 543.8C1137.79 543 1135.79 541.867 1133.93 540.4C1132.06 538.8 1130.26 536.933 1128.53 534.8C1126.79 532.533 1124.99 530 1123.13 527.2C1117.53 519.067 1113.19 512.6 1110.13 507.8C1107.06 502.867 1104.59 499.067 1102.73 496.4C1100.99 493.733 1099.53 491.8 1098.33 490.6C1097.26 489.4 1095.93 488.4 1094.33 487.6L1092.33 486.6V485.8C1098.73 485.4 1104.19 484 1108.73 481.6C1113.39 479.2 1117.19 476.2 1120.13 472.6C1123.06 469 1125.19 465.133 1126.53 461C1127.86 456.733 1128.53 452.6 1128.53 448.6C1128.53 445 1127.79 441.067 1126.33 436.8C1124.99 432.533 1122.59 428.6 1119.13 425C1115.79 421.267 1111.19 418.2 1105.33 415.8C1099.46 413.267 1092.06 412 1083.13 412H1037.73ZM1055.93 420.8H1076.13C1081.19 420.8 1085.73 421.533 1089.73 423C1093.86 424.467 1097.39 426.533 1100.33 429.2C1103.26 431.733 1105.46 434.8 1106.93 438.4C1108.53 442 1109.33 445.933 1109.33 450.2C1109.33 453.8 1108.59 457.467 1107.13 461.2C1105.79 464.8 1103.73 468.133 1100.93 471.2C1098.13 474.133 1094.66 476.533 1090.53 478.4C1086.53 480.267 1081.86 481.2 1076.53 481.2H1055.93V420.8ZM1189.28 412V552H1207.48V412H1189.28ZM1246.91 516.6C1247.17 522.333 1248.64 527.533 1251.31 532.2C1254.11 536.867 1257.84 540.867 1262.51 544.2C1267.31 547.4 1272.91 549.933 1279.31 551.8C1285.71 553.533 1292.71 554.4 1300.31 554.4C1308.04 554.4 1314.97 553.467 1321.11 551.6C1327.37 549.733 1332.71 547.067 1337.11 543.6C1341.51 540.133 1344.91 535.933 1347.31 531C1349.71 526.067 1350.91 520.6 1350.91 514.6C1350.91 506.333 1348.84 499.6 1344.71 494.4C1340.57 489.067 1335.37 484.667 1329.11 481.2C1322.97 477.6 1316.24 474.6 1308.91 472.2C1301.71 469.8 1294.97 467.267 1288.71 464.6C1282.57 461.933 1277.44 458.867 1273.31 455.4C1269.17 451.933 1267.11 447.333 1267.11 441.6C1267.11 438.4 1267.77 435.4 1269.11 432.6C1270.57 429.8 1272.64 427.4 1275.31 425.4C1278.11 423.267 1281.51 421.6 1285.51 420.4C1289.51 419.067 1294.11 418.4 1299.31 418.4C1307.97 418.4 1315.31 420.267 1321.31 424C1327.44 427.6 1331.04 433.333 1332.11 441.2H1345.71C1344.91 436.267 1343.11 431.867 1340.31 428C1337.51 424 1333.97 420.667 1329.71 418C1325.44 415.2 1320.57 413.133 1315.11 411.8C1309.77 410.333 1304.17 409.6 1298.31 409.6C1292.17 409.6 1286.31 410.4 1280.71 412C1275.24 413.6 1270.37 415.933 1266.11 419C1261.97 422.067 1258.64 425.933 1256.11 430.6C1253.71 435.267 1252.51 440.6 1252.51 446.6C1252.51 454.467 1254.51 460.8 1258.51 465.6C1262.51 470.4 1267.51 474.4 1273.51 477.6C1279.64 480.8 1286.24 483.533 1293.31 485.8C1300.37 488.067 1306.91 490.667 1312.91 493.6C1319.04 496.4 1324.11 499.867 1328.11 504C1332.11 508.133 1334.11 513.667 1334.11 520.6C1334.11 529.267 1330.91 535.6 1324.51 539.6C1318.24 543.6 1309.84 545.6 1299.31 545.6C1290.91 545.6 1284.17 544.533 1279.11 542.4C1274.04 540.133 1270.17 537.467 1267.51 534.4C1264.84 531.333 1263.04 528.2 1262.11 525C1261.17 521.667 1260.64 518.867 1260.51 516.6H1246.91ZM1440.31 552V423H1493.91V412H1368.51V423H1422.11V552H1440.31ZM1521.91 412V552H1612.31V541H1540.11V482.4H1602.11V473.2H1540.11V423H1612.31V412H1521.91ZM1642.22 552V412H1660.42V541H1732.62V552H1642.22ZM1846.05 412H1832.45V552H1841.25V437.8H1842.05L1903.85 554.4H1907.45L1970.65 438.6H1971.45V552H1989.65V412H1975.85L1911.05 532.2H1910.25L1846.05 412ZM2029.73 412V498C2029.73 503.467 2030.26 509.533 2031.33 516.2C2032.39 522.733 2034.93 528.867 2038.93 534.6C2042.93 540.2 2048.86 544.933 2056.73 548.8C2064.59 552.533 2075.33 554.4 2088.93 554.4C2097.46 554.4 2104.99 553.067 2111.53 550.4C2118.19 547.733 2123.73 544.067 2128.13 539.4C2132.66 534.733 2136.06 529.333 2138.33 523.2C2140.59 516.933 2141.73 510.267 2141.73 503.2V412H2132.93V496.6C2132.93 499.533 2132.86 502.533 2132.73 505.6C2132.59 508.533 2132.19 511.533 2131.53 514.6C2130.86 517.533 2129.79 520.467 2128.33 523.4C2126.99 526.333 2124.99 529.267 2122.33 532.2C2117.53 537.4 2112.13 540.933 2106.13 542.8C2100.13 544.667 2093.86 545.6 2087.33 545.6C2081.73 545.6 2076.73 544.733 2072.33 543C2068.06 541.267 2063.99 538.667 2060.13 535.2C2057.06 532.533 2054.73 529.867 2053.13 527.2C2051.53 524.533 2050.33 521.933 2049.53 519.4C2048.73 516.733 2048.26 514.067 2048.13 511.4C2047.99 508.733 2047.93 506.067 2047.93 503.4V412H2029.73ZM2163.67 412L2212.07 499V552H2230.27V497.2L2279.47 412H2268.67L2225.87 485.8H2225.07L2184.27 412H2163.67ZM2427.21 526.2C2413.61 539 2397.47 545.4 2378.81 545.4C2368.41 545.4 2359.21 543.6 2351.21 540C2343.21 536.4 2336.54 531.6 2331.21 525.6C2325.87 519.6 2321.81 512.667 2319.01 504.8C2316.34 496.933 2315.01 488.733 2315.01 480.2C2315.01 471.133 2316.41 462.867 2319.21 455.4C2322.14 447.8 2326.21 441.267 2331.41 435.8C2336.61 430.333 2342.74 426.067 2349.81 423C2357.01 419.933 2364.81 418.4 2373.21 418.4C2378.94 418.4 2384.14 419.067 2388.81 420.4C2393.61 421.733 2397.81 423.467 2401.41 425.6C2405.14 427.733 2408.14 430.2 2410.41 433C2412.81 435.667 2414.47 438.4 2415.41 441.2H2430.21C2428.21 436.667 2425.61 432.467 2422.41 428.6C2419.34 424.733 2415.47 421.4 2410.81 418.6C2406.14 415.8 2400.67 413.6 2394.41 412C2388.14 410.4 2381.01 409.6 2373.01 409.6C2361.41 409.6 2350.81 411.267 2341.21 414.6C2331.74 417.933 2323.61 422.733 2316.81 429C2310.01 435.133 2304.74 442.6 2301.01 451.4C2297.27 460.067 2295.41 469.8 2295.41 480.6C2295.41 489.933 2296.87 499.067 2299.81 508C2302.87 516.8 2307.54 524.667 2313.81 531.6C2320.07 538.4 2328.07 543.933 2337.81 548.2C2347.54 552.333 2359.14 554.4 2372.61 554.4C2381.14 554.4 2388.74 553.6 2395.41 552C2402.21 550.4 2408.07 548.467 2413.01 546.2C2418.07 543.8 2422.27 541.267 2425.61 538.6C2428.94 535.933 2431.47 533.6 2433.21 531.6L2427.21 526.2ZM2447.16 482C2447.16 489.467 2448.56 497.467 2451.36 506C2454.3 514.4 2458.83 522.2 2464.96 529.4C2471.1 536.6 2478.9 542.6 2488.36 547.4C2497.83 552.067 2509.16 554.4 2522.36 554.4C2531.3 554.4 2539.36 553.333 2546.56 551.2C2553.9 548.933 2560.43 545.933 2566.16 542.2C2572.03 538.467 2577.1 534.2 2581.36 529.4C2585.63 524.467 2589.1 519.333 2591.76 514C2594.56 508.533 2596.63 503.067 2597.96 497.6C2599.43 492.133 2600.16 486.933 2600.16 482C2600.16 474.533 2598.63 466.6 2595.56 458.2C2592.5 449.667 2587.76 441.8 2581.36 434.6C2574.96 427.4 2566.83 421.467 2556.96 416.8C2547.23 412 2535.7 409.6 2522.36 409.6C2509.16 409.6 2497.83 411.933 2488.36 416.6C2478.9 421.267 2471.1 427.2 2464.96 434.4C2458.83 441.467 2454.3 449.267 2451.36 457.8C2448.56 466.333 2447.16 474.4 2447.16 482ZM2466.76 482C2466.76 472.667 2468.16 464.133 2470.96 456.4C2473.9 448.533 2477.83 441.8 2482.76 436.2C2487.83 430.6 2493.76 426.267 2500.56 423.2C2507.36 420 2514.76 418.4 2522.76 418.4C2530.63 418.4 2538.03 420 2544.96 423.2C2552.03 426.267 2558.16 430.6 2563.36 436.2C2568.7 441.8 2572.9 448.533 2575.96 456.4C2579.03 464.133 2580.56 472.667 2580.56 482C2580.56 491.333 2579.03 499.933 2575.96 507.8C2572.9 515.533 2568.7 522.2 2563.36 527.8C2558.16 533.4 2552.03 537.8 2544.96 541C2538.03 544.067 2530.63 545.6 2522.76 545.6C2514.76 545.6 2507.36 544.067 2500.56 541C2493.76 537.8 2487.83 533.4 2482.76 527.8C2477.83 522.2 2473.9 515.533 2470.96 507.8C2468.16 499.933 2466.76 491.333 2466.76 482Z" fill="#343A40"/>
<path d="M919.12 609.12C923.013 609.12 926.027 609.68 928.16 610.8C930.293 611.867 931.84 613.28 932.8 615.04C933.813 616.8 934.4 618.827 934.56 621.12C934.72 623.413 934.8 625.76 934.8 628.16V650H928.32V646.08C926.773 647.573 924.8 648.773 922.4 649.68C920 650.533 917.6 650.96 915.2 650.96C912.907 650.96 910.88 650.56 909.12 649.76C907.36 648.96 905.893 647.92 904.72 646.64C903.547 645.36 902.667 643.92 902.08 642.32C901.493 640.72 901.2 639.093 901.2 637.44C901.2 635.733 901.52 634.027 902.16 632.32C902.8 630.613 903.76 629.093 905.04 627.76C906.32 626.373 907.893 625.253 909.76 624.4C911.627 623.547 913.76 623.12 916.16 623.12C918.56 623.12 920.827 623.6 922.96 624.56C925.147 625.467 926.933 626.773 928.32 628.48V625.04C928.32 620.667 927.653 617.413 926.32 615.28C925.04 613.147 922.667 612.08 919.2 612.08C917.707 612.08 916.4 612.267 915.28 612.64C914.16 613.013 913.147 613.547 912.24 614.24C911.387 614.88 910.587 615.707 909.84 616.72C909.093 617.68 908.347 618.773 907.6 620L903.44 615.84C904.187 615.04 904.96 614.24 905.76 613.44C906.613 612.64 907.627 611.92 908.8 611.28C910.027 610.64 911.467 610.133 913.12 609.76C914.773 609.333 916.773 609.12 919.12 609.12ZM928.32 634.16C928.053 633.52 927.653 632.773 927.12 631.92C926.64 631.067 926 630.24 925.2 629.44C924.4 628.64 923.44 627.973 922.32 627.44C921.2 626.853 919.867 626.56 918.32 626.56C916.773 626.56 915.36 626.88 914.08 627.52C912.8 628.107 911.707 628.907 910.8 629.92C909.947 630.88 909.28 632.027 908.8 633.36C908.32 634.693 908.08 636.08 908.08 637.52C908.08 639.227 908.373 640.72 908.96 642C909.6 643.227 910.4 644.293 911.36 645.2C912.32 646.053 913.387 646.693 914.56 647.12C915.733 647.547 916.853 647.76 917.92 647.76C918.933 647.76 919.947 647.573 920.96 647.2C922.027 646.827 923.013 646.32 923.92 645.68C924.88 644.987 925.733 644.187 926.48 643.28C927.227 642.373 927.84 641.387 928.32 640.32V634.16ZM947.603 610V650H954.403V625.84C954.403 623.653 954.643 621.813 955.123 620.32C955.656 618.773 956.323 617.52 957.123 616.56C957.923 615.6 958.803 614.907 959.763 614.48C960.723 614.053 961.656 613.84 962.563 613.84C963.79 613.84 964.91 614.24 965.923 615.04C966.99 615.84 967.763 616.587 968.243 617.28L970.963 612.32C970.483 611.68 969.896 611.147 969.203 610.72C968.563 610.293 967.896 609.973 967.203 609.76C966.563 609.493 965.95 609.333 965.363 609.28C964.83 609.173 964.43 609.12 964.163 609.12C961.923 609.12 960.056 609.733 958.563 610.96C957.07 612.187 955.843 614 954.883 616.4H954.403V610H947.603ZM974.15 613.2V610H981.11V597.68H987.91V610H997.59V613.2H987.91V639.76C987.91 640.4 987.937 641.147 987.99 642C988.043 642.8 988.203 643.573 988.47 644.32C988.737 645.013 989.137 645.6 989.67 646.08C990.257 646.56 991.057 646.8 992.07 646.8C993.35 646.8 994.417 646.32 995.27 645.36C996.123 644.4 996.817 643.36 997.35 642.24L1001.11 646.08C998.497 648.693 995.537 650 992.23 650C990.843 650 989.483 649.76 988.15 649.28C986.817 648.8 985.617 648.08 984.55 647.12C983.537 646.107 982.71 644.827 982.07 643.28C981.43 641.733 981.11 639.92 981.11 637.84V613.2H974.15ZM1071.64 594H1064.84V616.56H1064.52C1063.99 615.173 1063.27 614.027 1062.36 613.12C1061.51 612.16 1060.52 611.387 1059.4 610.8C1058.28 610.213 1057.08 609.787 1055.8 609.52C1054.57 609.253 1053.32 609.12 1052.04 609.12C1049.37 609.12 1046.92 609.627 1044.68 610.64C1042.44 611.6 1040.49 612.987 1038.84 614.8C1037.24 616.613 1035.99 618.8 1035.08 621.36C1034.17 623.92 1033.72 626.773 1033.72 629.92C1033.72 633.12 1034.17 636.027 1035.08 638.64C1035.99 641.2 1037.24 643.413 1038.84 645.28C1040.49 647.093 1042.44 648.507 1044.68 649.52C1046.92 650.48 1049.37 650.96 1052.04 650.96C1058.33 650.96 1062.49 648.48 1064.52 643.52H1064.84V650H1071.64V594ZM1064.84 634C1064.84 635.76 1064.55 637.44 1063.96 639.04C1063.37 640.587 1062.57 641.947 1061.56 643.12C1060.6 644.24 1059.43 645.147 1058.04 645.84C1056.71 646.48 1055.27 646.8 1053.72 646.8C1052.01 646.8 1050.41 646.507 1048.92 645.92C1047.43 645.28 1046.12 644.293 1045 642.96C1043.88 641.627 1042.97 639.893 1042.28 637.76C1041.64 635.627 1041.32 633.067 1041.32 630.08C1041.32 627.04 1041.64 624.453 1042.28 622.32C1042.97 620.187 1043.88 618.453 1045 617.12C1046.17 615.733 1047.51 614.747 1049 614.16C1050.49 613.52 1052.07 613.2 1053.72 613.2C1055.21 613.2 1056.63 613.52 1057.96 614.16C1059.29 614.747 1060.47 615.653 1061.48 616.88C1062.49 618.053 1063.29 619.493 1063.88 621.2C1064.52 622.907 1064.84 624.853 1064.84 627.04V634ZM1086.96 610V650H1093.76V610H1086.96ZM1086 597.36C1086 598.533 1086.43 599.547 1087.28 600.4C1088.13 601.253 1089.15 601.68 1090.32 601.68C1091.49 601.68 1092.51 601.253 1093.36 600.4C1094.21 599.547 1094.64 598.533 1094.64 597.36C1094.64 596.187 1094.21 595.173 1093.36 594.32C1092.51 593.467 1091.49 593.04 1090.32 593.04C1089.15 593.04 1088.13 593.467 1087.28 594.32C1086.43 595.173 1086 596.187 1086 597.36ZM1109.01 610V650H1115.81V625.84C1115.81 623.653 1116.05 621.813 1116.53 620.32C1117.06 618.773 1117.73 617.52 1118.53 616.56C1119.33 615.6 1120.21 614.907 1121.17 614.48C1122.13 614.053 1123.06 613.84 1123.97 613.84C1125.2 613.84 1126.32 614.24 1127.33 615.04C1128.4 615.84 1129.17 616.587 1129.65 617.28L1132.37 612.32C1131.89 611.68 1131.3 611.147 1130.61 610.72C1129.97 610.293 1129.3 609.973 1128.61 609.76C1127.97 609.493 1127.36 609.333 1126.77 609.28C1126.24 609.173 1125.84 609.12 1125.57 609.12C1123.33 609.12 1121.46 609.733 1119.97 610.96C1118.48 612.187 1117.25 614 1116.29 616.4H1115.81V610H1109.01ZM1175.08 631.76V630.08C1175.08 626.507 1174.57 623.413 1173.56 620.8C1172.54 618.187 1171.16 616.027 1169.4 614.32C1167.69 612.613 1165.69 611.333 1163.4 610.48C1161.1 609.627 1158.68 609.2 1156.12 609.2C1153.4 609.2 1150.89 609.68 1148.6 610.64C1146.3 611.547 1144.3 612.907 1142.6 614.72C1140.89 616.48 1139.56 618.64 1138.6 621.2C1137.64 623.707 1137.16 626.56 1137.16 629.76C1137.16 632.427 1137.56 635.04 1138.36 637.6C1139.21 640.107 1140.46 642.373 1142.12 644.4C1143.82 646.373 1145.96 647.973 1148.52 649.2C1151.13 650.373 1154.2 650.96 1157.72 650.96C1161.13 650.96 1164.28 650.373 1167.16 649.2C1170.04 647.973 1172.54 646.24 1174.68 644L1172.12 641.44C1171 642.4 1169.93 643.28 1168.92 644.08C1167.96 644.88 1166.97 645.547 1165.96 646.08C1164.94 646.613 1163.88 647.04 1162.76 647.36C1161.69 647.627 1160.49 647.76 1159.16 647.76C1157.66 647.76 1156.06 647.547 1154.36 647.12C1152.7 646.64 1151.16 645.813 1149.72 644.64C1148.28 643.467 1147.08 641.84 1146.12 639.76C1145.16 637.68 1144.68 635.013 1144.68 631.76H1175.08ZM1144.68 628.56C1144.68 626.427 1144.89 624.373 1145.32 622.4C1145.8 620.373 1146.49 618.587 1147.4 617.04C1148.36 615.493 1149.56 614.267 1151 613.36C1152.44 612.4 1154.14 611.92 1156.12 611.92C1159.9 611.92 1162.84 613.413 1164.92 616.4C1167.05 619.333 1168.12 623.387 1168.12 628.56H1144.68ZM1205.57 646.8C1203.65 646.8 1201.79 646.507 1199.97 645.92C1198.21 645.333 1196.64 644.4 1195.25 643.12C1193.87 641.787 1192.75 640.053 1191.89 637.92C1191.09 635.733 1190.69 633.067 1190.69 629.92C1190.69 626.667 1191.15 623.92 1192.05 621.68C1192.96 619.387 1194.08 617.573 1195.41 616.24C1196.8 614.853 1198.32 613.867 1199.97 613.28C1201.63 612.64 1203.2 612.32 1204.69 612.32C1207.15 612.32 1209.28 612.96 1211.09 614.24C1212.91 615.52 1214.11 617.093 1214.69 618.96H1220.21C1219.68 617.04 1218.83 615.467 1217.65 614.24C1216.48 612.96 1215.12 611.947 1213.57 611.2C1212.08 610.4 1210.45 609.867 1208.69 609.6C1206.99 609.28 1205.33 609.12 1203.73 609.12C1200.37 609.12 1197.41 609.68 1194.85 610.8C1192.29 611.867 1190.13 613.333 1188.37 615.2C1186.61 617.067 1185.28 619.253 1184.37 621.76C1183.52 624.267 1183.09 626.933 1183.09 629.76C1183.09 632.747 1183.57 635.547 1184.53 638.16C1185.49 640.72 1186.85 642.96 1188.61 644.88C1190.43 646.747 1192.59 648.24 1195.09 649.36C1197.6 650.427 1200.43 650.96 1203.57 650.96C1207.09 650.96 1210.16 650.373 1212.77 649.2C1215.44 648.027 1217.68 646.747 1219.49 645.36L1217.17 642.32C1215.31 643.867 1213.44 645.013 1211.57 645.76C1209.76 646.453 1207.76 646.8 1205.57 646.8ZM1225.01 613.2V610H1231.97V597.68H1238.77V610H1248.45V613.2H1238.77V639.76C1238.77 640.4 1238.8 641.147 1238.85 642C1238.9 642.8 1239.06 643.573 1239.33 644.32C1239.6 645.013 1240 645.6 1240.53 646.08C1241.12 646.56 1241.92 646.8 1242.93 646.8C1244.21 646.8 1245.28 646.32 1246.13 645.36C1246.98 644.4 1247.68 643.36 1248.21 642.24L1251.97 646.08C1249.36 648.693 1246.4 650 1243.09 650C1241.7 650 1240.34 649.76 1239.01 649.28C1237.68 648.8 1236.48 648.08 1235.41 647.12C1234.4 646.107 1233.57 644.827 1232.93 643.28C1232.29 641.733 1231.97 639.92 1231.97 637.84V613.2H1225.01ZM1261.57 610V650H1268.37V610H1261.57ZM1260.61 597.36C1260.61 598.533 1261.04 599.547 1261.89 600.4C1262.74 601.253 1263.76 601.68 1264.93 601.68C1266.1 601.68 1267.12 601.253 1267.97 600.4C1268.82 599.547 1269.25 598.533 1269.25 597.36C1269.25 596.187 1268.82 595.173 1267.97 594.32C1267.12 593.467 1266.1 593.04 1264.93 593.04C1263.76 593.04 1262.74 593.467 1261.89 594.32C1261.04 595.173 1260.61 596.187 1260.61 597.36ZM1322.66 630.08C1322.66 632.853 1322.18 635.52 1321.22 638.08C1320.26 640.587 1318.87 642.8 1317.06 644.72C1315.3 646.64 1313.14 648.16 1310.58 649.28C1308.07 650.4 1305.25 650.96 1302.1 650.96C1298.9 650.96 1295.99 650.4 1293.38 649.28C1290.82 648.107 1288.63 646.56 1286.82 644.64C1285.06 642.72 1283.67 640.507 1282.66 638C1281.7 635.44 1281.22 632.8 1281.22 630.08C1281.22 627.307 1281.7 624.667 1282.66 622.16C1283.67 619.6 1285.06 617.36 1286.82 615.44C1288.63 613.52 1290.82 612 1293.38 610.88C1295.99 609.707 1298.9 609.12 1302.1 609.12C1305.25 609.12 1308.07 609.707 1310.58 610.88C1313.14 612 1315.3 613.52 1317.06 615.44C1318.87 617.36 1320.26 619.6 1321.22 622.16C1322.18 624.667 1322.66 627.307 1322.66 630.08ZM1315.06 630.08C1315.06 626.347 1314.66 623.333 1313.86 621.04C1313.06 618.693 1312.02 616.88 1310.74 615.6C1309.46 614.32 1308.05 613.467 1306.5 613.04C1304.95 612.56 1303.46 612.32 1302.02 612.32C1300.58 612.32 1299.09 612.56 1297.54 613.04C1295.99 613.467 1294.55 614.32 1293.22 615.6C1291.94 616.88 1290.87 618.693 1290.02 621.04C1289.22 623.333 1288.82 626.347 1288.82 630.08C1288.82 633.76 1289.22 636.773 1290.02 639.12C1290.87 641.413 1291.94 643.2 1293.22 644.48C1294.55 645.76 1295.99 646.64 1297.54 647.12C1299.09 647.547 1300.58 647.76 1302.02 647.76C1303.46 647.76 1304.95 647.547 1306.5 647.12C1308.05 646.64 1309.46 645.76 1310.74 644.48C1312.02 643.2 1313.06 641.413 1313.86 639.12C1314.66 636.773 1315.06 633.76 1315.06 630.08ZM1366.51 650V624.08C1366.51 623.12 1366.43 621.813 1366.27 620.16C1366.11 618.453 1365.58 616.8 1364.67 615.2C1363.82 613.547 1362.43 612.133 1360.51 610.96C1358.59 609.733 1355.87 609.12 1352.35 609.12C1350.81 609.067 1349.07 609.387 1347.15 610.08C1345.23 610.72 1343.34 611.973 1341.47 613.84L1340.19 615.12H1339.87V610H1333.07V650H1339.87V625.28C1339.87 623.2 1340.17 621.413 1340.75 619.92C1341.34 618.427 1342.14 617.173 1343.15 616.16C1344.17 615.147 1345.31 614.4 1346.59 613.92C1347.93 613.44 1349.29 613.2 1350.67 613.2C1352.91 613.2 1354.65 613.653 1355.87 614.56C1357.1 615.413 1357.98 616.427 1358.51 617.6C1359.1 618.773 1359.45 619.947 1359.55 621.12C1359.66 622.293 1359.71 623.147 1359.71 623.68V650H1366.51ZM1441.77 645.2C1438.51 647.6 1435.58 649.147 1432.97 649.84C1430.41 650.533 1428.03 650.88 1425.85 650.88C1422.59 650.88 1419.71 650.453 1417.21 649.6C1414.75 648.693 1412.67 647.52 1410.97 646.08C1409.31 644.587 1408.06 642.907 1407.21 641.04C1406.35 639.173 1405.93 637.28 1405.93 635.36C1405.93 633.333 1406.3 631.467 1407.05 629.76C1407.85 628.053 1408.91 626.48 1410.25 625.04C1411.63 623.547 1413.23 622.213 1415.05 621.04C1416.86 619.813 1418.83 618.693 1420.97 617.68C1419.26 615.28 1417.79 613.093 1416.57 611.12C1415.39 609.093 1414.81 606.96 1414.81 604.72C1414.81 603.387 1415.02 602.027 1415.45 600.64C1415.93 599.2 1416.65 597.92 1417.61 596.8C1418.62 595.68 1419.87 594.773 1421.37 594.08C1422.91 593.333 1424.75 592.96 1426.89 592.96C1428.54 592.96 1430.09 593.227 1431.53 593.76C1432.97 594.293 1434.22 595.067 1435.29 596.08C1436.35 597.093 1437.21 598.32 1437.85 599.76C1438.49 601.147 1438.81 602.72 1438.81 604.48C1438.81 606.72 1438.03 608.933 1436.49 611.12C1434.99 613.253 1432.38 615.2 1428.65 616.96L1444.57 637.92C1446.17 635.787 1447.39 633.36 1448.25 630.64C1449.1 627.867 1449.61 624.347 1449.77 620.08H1456.01C1455.74 622.96 1455.18 625.547 1454.33 627.84C1453.53 630.133 1452.62 632.16 1451.61 633.92C1450.65 635.68 1449.69 637.147 1448.73 638.32C1447.82 639.44 1447.13 640.267 1446.65 640.8L1453.93 650H1445.45L1441.77 645.2ZM1427.29 596.48C1426.11 596.48 1425.1 596.693 1424.25 597.12C1423.45 597.493 1422.78 598 1422.24 598.64C1421.71 599.28 1421.31 600 1421.05 600.8C1420.83 601.6 1420.73 602.4 1420.73 603.2C1420.73 605.067 1421.31 606.907 1422.49 608.72C1423.66 610.48 1425.1 612.427 1426.81 614.56C1427.5 614.187 1428.25 613.68 1429.05 613.04C1429.9 612.347 1430.67 611.573 1431.37 610.72C1432.06 609.813 1432.62 608.8 1433.05 607.68C1433.53 606.56 1433.77 605.333 1433.77 604C1433.77 603.307 1433.66 602.533 1433.45 601.68C1433.23 600.773 1432.89 599.947 1432.41 599.2C1431.93 598.453 1431.26 597.813 1430.41 597.28C1429.61 596.747 1428.57 596.48 1427.29 596.48ZM1422.97 620.48C1419.07 622.507 1416.38 624.507 1414.89 626.48C1413.45 628.453 1412.73 630.64 1412.73 633.04C1412.73 635.227 1413.18 637.173 1414.09 638.88C1414.99 640.533 1416.17 641.947 1417.61 643.12C1419.1 644.293 1420.73 645.2 1422.49 645.84C1424.3 646.427 1426.09 646.72 1427.85 646.72C1428.27 646.72 1428.91 646.693 1429.77 646.64C1430.67 646.533 1431.69 646.347 1432.81 646.08C1433.93 645.813 1435.07 645.413 1436.25 644.88C1437.47 644.347 1438.65 643.6 1439.77 642.64L1422.97 620.48ZM1527.5 594H1520.7V616.56H1520.38C1519.84 615.173 1519.12 614.027 1518.22 613.12C1517.36 612.16 1516.38 611.387 1515.26 610.8C1514.14 610.213 1512.94 609.787 1511.66 609.52C1510.43 609.253 1509.18 609.12 1507.9 609.12C1505.23 609.12 1502.78 609.627 1500.54 610.64C1498.3 611.6 1496.35 612.987 1494.7 614.8C1493.1 616.613 1491.84 618.8 1490.94 621.36C1490.03 623.92 1489.58 626.773 1489.58 629.92C1489.58 633.12 1490.03 636.027 1490.94 638.64C1491.84 641.2 1493.1 643.413 1494.7 645.28C1496.35 647.093 1498.3 648.507 1500.54 649.52C1502.78 650.48 1505.23 650.96 1507.9 650.96C1514.19 650.96 1518.35 648.48 1520.38 643.52H1520.7V650H1527.5V594ZM1520.7 634C1520.7 635.76 1520.4 637.44 1519.82 639.04C1519.23 640.587 1518.43 641.947 1517.42 643.12C1516.46 644.24 1515.28 645.147 1513.9 645.84C1512.56 646.48 1511.12 646.8 1509.58 646.8C1507.87 646.8 1506.27 646.507 1504.78 645.92C1503.28 645.28 1501.98 644.293 1500.86 642.96C1499.74 641.627 1498.83 639.893 1498.14 637.76C1497.5 635.627 1497.18 633.067 1497.18 630.08C1497.18 627.04 1497.5 624.453 1498.14 622.32C1498.83 620.187 1499.74 618.453 1500.86 617.12C1502.03 615.733 1503.36 614.747 1504.86 614.16C1506.35 613.52 1507.92 613.2 1509.58 613.2C1511.07 613.2 1512.48 613.52 1513.82 614.16C1515.15 614.747 1516.32 615.653 1517.34 616.88C1518.35 618.053 1519.15 619.493 1519.74 621.2C1520.38 622.907 1520.7 624.853 1520.7 627.04V634ZM1575.78 631.76V630.08C1575.78 626.507 1575.27 623.413 1574.26 620.8C1573.25 618.187 1571.86 616.027 1570.1 614.32C1568.39 612.613 1566.39 611.333 1564.1 610.48C1561.81 609.627 1559.38 609.2 1556.82 609.2C1554.1 609.2 1551.59 609.68 1549.3 610.64C1547.01 611.547 1545.01 612.907 1543.3 614.72C1541.59 616.48 1540.26 618.64 1539.3 621.2C1538.34 623.707 1537.86 626.56 1537.86 629.76C1537.86 632.427 1538.26 635.04 1539.06 637.6C1539.91 640.107 1541.17 642.373 1542.82 644.4C1544.53 646.373 1546.66 647.973 1549.22 649.2C1551.83 650.373 1554.9 650.96 1558.42 650.96C1561.83 650.96 1564.98 650.373 1567.86 649.2C1570.74 647.973 1573.25 646.24 1575.38 644L1572.82 641.44C1571.7 642.4 1570.63 643.28 1569.62 644.08C1568.66 644.88 1567.67 645.547 1566.66 646.08C1565.65 646.613 1564.58 647.04 1563.46 647.36C1562.39 647.627 1561.19 647.76 1559.86 647.76C1558.37 647.76 1556.77 647.547 1555.06 647.12C1553.41 646.64 1551.86 645.813 1550.42 644.64C1548.98 643.467 1547.78 641.84 1546.82 639.76C1545.86 637.68 1545.38 635.013 1545.38 631.76H1575.78ZM1545.38 628.56C1545.38 626.427 1545.59 624.373 1546.02 622.4C1546.5 620.373 1547.19 618.587 1548.1 617.04C1549.06 615.493 1550.26 614.267 1551.7 613.36C1553.14 612.4 1554.85 611.92 1556.82 611.92C1560.61 611.92 1563.54 613.413 1565.62 616.4C1567.75 619.333 1568.82 623.387 1568.82 628.56H1545.38ZM1611.72 619.12C1611.72 617.68 1611.34 616.347 1610.6 615.12C1609.85 613.893 1608.81 612.853 1607.48 612C1606.2 611.093 1604.68 610.4 1602.92 609.92C1601.21 609.387 1599.37 609.12 1597.4 609.12C1595.53 609.12 1593.77 609.36 1592.12 609.84C1590.52 610.32 1589.1 611.04 1587.88 612C1586.7 612.96 1585.77 614.16 1585.08 615.6C1584.38 616.987 1584.04 618.613 1584.04 620.48C1584.04 623.04 1584.62 625.067 1585.8 626.56C1586.97 628.053 1588.44 629.253 1590.2 630.16C1591.96 631.067 1593.85 631.813 1595.88 632.4C1597.96 632.933 1599.88 633.547 1601.64 634.24C1603.4 634.88 1604.86 635.707 1606.04 636.72C1607.21 637.733 1607.8 639.12 1607.8 640.88C1607.8 641.627 1607.66 642.4 1607.4 643.2C1607.18 644 1606.76 644.747 1606.12 645.44C1605.48 646.08 1604.6 646.64 1603.48 647.12C1602.36 647.547 1600.94 647.76 1599.24 647.76C1597.1 647.76 1595.29 647.44 1593.8 646.8C1592.36 646.107 1591.16 645.307 1590.2 644.4C1589.29 643.44 1588.62 642.48 1588.2 641.52C1587.82 640.56 1587.64 639.76 1587.64 639.12H1582.44C1582.44 640.613 1582.78 642.08 1583.48 643.52C1584.17 644.907 1585.21 646.16 1586.6 647.28C1588.04 648.4 1589.77 649.307 1591.8 650C1593.88 650.64 1596.28 650.96 1599 650.96C1603.9 650.96 1607.58 649.893 1610.04 647.76C1612.54 645.573 1613.8 642.72 1613.8 639.2C1613.8 636.64 1613.18 634.587 1611.96 633.04C1610.78 631.493 1609.29 630.267 1607.48 629.36C1605.66 628.4 1603.69 627.627 1601.56 627.04C1599.48 626.453 1597.53 625.84 1595.72 625.2C1593.9 624.56 1592.38 623.787 1591.16 622.88C1589.98 621.973 1589.4 620.693 1589.4 619.04C1589.4 618.347 1589.53 617.627 1589.8 616.88C1590.06 616.08 1590.52 615.36 1591.16 614.72C1591.8 614.027 1592.65 613.467 1593.72 613.04C1594.78 612.56 1596.12 612.32 1597.72 612.32C1599.32 612.32 1600.7 612.56 1601.88 613.04C1603.05 613.467 1604.04 614.027 1604.84 614.72C1605.64 615.36 1606.22 616.08 1606.6 616.88C1606.97 617.68 1607.16 618.427 1607.16 619.12H1611.72ZM1627.19 610V650H1633.99V610H1627.19ZM1626.23 597.36C1626.23 598.533 1626.66 599.547 1627.51 600.4C1628.37 601.253 1629.38 601.68 1630.55 601.68C1631.73 601.68 1632.74 601.253 1633.59 600.4C1634.45 599.547 1634.87 598.533 1634.87 597.36C1634.87 596.187 1634.45 595.173 1633.59 594.32C1632.74 593.467 1631.73 593.04 1630.55 593.04C1629.38 593.04 1628.37 593.467 1627.51 594.32C1626.66 595.173 1626.23 596.187 1626.23 597.36ZM1677.8 653.36C1677.8 655.813 1677.51 657.893 1676.92 659.6C1676.34 661.307 1675.51 662.693 1674.44 663.76C1673.43 664.827 1672.2 665.6 1670.76 666.08C1669.38 666.56 1667.88 666.8 1666.28 666.8C1663.46 666.8 1661.16 666.08 1659.4 664.64C1657.7 663.2 1656.12 661.28 1654.68 658.88L1650.28 662.88C1650.66 663.36 1651.24 663.973 1652.04 664.72C1652.84 665.52 1653.86 666.293 1655.08 667.04C1656.31 667.84 1657.78 668.507 1659.48 669.04C1661.19 669.627 1663.14 669.92 1665.32 669.92C1669.38 669.92 1672.66 669.333 1675.16 668.16C1677.67 667.04 1679.62 665.52 1681 663.6C1682.39 661.68 1683.32 659.467 1683.8 656.96C1684.34 654.507 1684.6 651.947 1684.6 649.28V610H1677.8V616.24H1677.48C1676.84 614 1675.46 612.267 1673.32 611.04C1671.24 609.76 1668.5 609.12 1665.08 609.12C1662.36 609.12 1659.88 609.627 1657.64 610.64C1655.4 611.6 1653.48 612.987 1651.88 614.8C1650.28 616.613 1649.03 618.8 1648.12 621.36C1647.27 623.92 1646.84 626.773 1646.84 629.92C1646.84 633.12 1647.27 636.027 1648.12 638.64C1649.03 641.2 1650.28 643.413 1651.88 645.28C1653.48 647.093 1655.38 648.507 1657.56 649.52C1659.8 650.48 1662.28 650.96 1665 650.96C1667.99 650.96 1670.58 650.373 1672.76 649.2C1675 648.027 1676.58 646.16 1677.48 643.6H1677.8V653.36ZM1677.8 632.96C1677.8 635.2 1677.48 637.173 1676.84 638.88C1676.26 640.587 1675.46 642.027 1674.44 643.2C1673.43 644.373 1672.26 645.28 1670.92 645.92C1669.59 646.507 1668.2 646.8 1666.76 646.8C1665.48 646.8 1664.1 646.587 1662.6 646.16C1661.16 645.68 1659.8 644.827 1658.52 643.6C1657.3 642.373 1656.26 640.64 1655.4 638.4C1654.6 636.16 1654.2 633.28 1654.2 629.76C1654.2 626.027 1654.71 623.067 1655.72 620.88C1656.74 618.64 1657.91 616.933 1659.24 615.76C1660.63 614.587 1662.02 613.84 1663.4 613.52C1664.84 613.147 1665.96 612.96 1666.76 612.96C1668.52 612.96 1670.1 613.36 1671.48 614.16C1672.87 614.907 1674.02 615.947 1674.92 617.28C1675.88 618.56 1676.6 620.053 1677.08 621.76C1677.56 623.467 1677.8 625.227 1677.8 627.04V632.96ZM1730.81 650V624.08C1730.81 623.12 1730.73 621.813 1730.57 620.16C1730.41 618.453 1729.88 616.8 1728.97 615.2C1728.12 613.547 1726.73 612.133 1724.81 610.96C1722.89 609.733 1720.17 609.12 1716.65 609.12C1715.1 609.067 1713.37 609.387 1711.45 610.08C1709.53 610.72 1707.64 611.973 1705.77 613.84L1704.49 615.12H1704.17V610H1697.37V650H1704.17V625.28C1704.17 623.2 1704.46 621.413 1705.05 619.92C1705.64 618.427 1706.44 617.173 1707.45 616.16C1708.46 615.147 1709.61 614.4 1710.89 613.92C1712.22 613.44 1713.58 613.2 1714.97 613.2C1717.21 613.2 1718.94 613.653 1720.17 614.56C1721.4 615.413 1722.28 616.427 1722.81 617.6C1723.4 618.773 1723.74 619.947 1723.85 621.12C1723.96 622.293 1724.01 623.147 1724.01 623.68V650H1730.81Z" fill="#343A40"/>
<defs>
<filter id="filter0_d" x="0.987305" y="0" width="874.025" height="758" filterUnits="userSpaceOnUse" color-interpolation-filters="sRGB">
<feFlood flood-opacity="0" result="BackgroundImageFix"/>
<feColorMatrix in="SourceAlpha" type="matrix" values="0 0 0 0 0 0 0 0 0 0 0 0 0 0 0 0 0 0 127 0"/>
<feOffset dy="4"/>
<feGaussianBlur stdDeviation="2"/>
<feColorMatrix type="matrix" values="0 0 0 0 0 0 0 0 0 0 0 0 0 0 0 0 0 0 0.25 0"/>
<feBlend mode="normal" in2="BackgroundImageFix" result="effect1_dropShadow"/>
<feBlend mode="normal" in="SourceGraphic" in2="effect1_dropShadow" result="shape"/>
</filter>
</defs>
</svg>
