<svg width="80" height="80" viewBox="0 0 80 80" fill="none" xmlns="http://www.w3.org/2000/svg">
<path d="M35.5301 28.6777L44.0633 45.3495L33.2899 44.9149L35.5301 28.6777Z" fill="#F4A93F"/>
<path d="M39.623 31.8672L45.9486 45.3492L33.0208 44.9146L39.623 31.8672Z" fill="#F4A83E"/>
<path d="M38.4364 34.1797L43.9696 45.3499L33.1562 45.2289L38.4364 34.1797Z" fill="#E88634"/>
<path d="M44.2387 33.043L45.949 45.3498L32.8863 45.2012L44.2387 33.043Z" fill="#F8CA51"/>
<path d="M39.6233 49.1123L46.0913 45.2007L32.8863 45.0625L39.6233 49.1123Z" fill="#F8CA51"/>
<path d="M0.00488281 39.6426C0.287069 49.9658 18.0833 58.084 39.9962 58.084V54.0958C22.358 53.997 3.85638 47.9378 3.55996 39.6426H0.00488281Z" fill="#E88634"/>
<path d="M59.7815 1.65385C51.6697 -3.23359 36.5034 9.99383 25.5461 31.2777L28.6257 33.2717C37.5205 16.1886 51.4507 1.24764 58.0037 5.10737L59.7815 1.65385Z" fill="#F9CB52"/>
<path d="M0.00488281 39.6426C0.287069 29.3194 18.0833 21.2012 39.9962 21.2012V25.1894C22.358 25.2882 3.85638 31.3478 3.55996 39.6426H0.00488281Z" fill="#E88634"/>
<path d="M20.0193 0.765625C12.1891 6.20133 14.819 27.5465 25.7754 48.8307L28.8549 46.8361C20.1115 29.6553 15.5403 8.65403 21.7967 4.21963L20.0193 0.765625Z" fill="#F4A73E"/>
<path d="M20.0177 78.7349C12.1875 73.2991 14.817 51.9537 25.7737 30.6699L28.8533 32.6641C20.1099 49.8455 15.5387 70.8465 21.7952 75.2813L20.0177 78.7349Z" fill="#F9CB52"/>
<path d="M19.5547 1.01521C27.667 -3.87224 42.8333 9.35468 53.7902 30.639L50.7102 32.6326C41.8154 15.55 27.8851 0.609999 21.3322 4.46922L19.5547 1.01521Z" fill="#F4A73E"/>
<path d="M79.9912 39.6426C79.709 29.3194 61.9118 21.2012 40 21.2012V25.1894C57.6377 25.2882 76.1396 31.3478 76.4362 39.6426H79.9912Z" fill="#E88634"/>
<path d="M19.6614 78.7678C19.709 78.8002 19.7564 78.8322 19.8044 78.8626C27.8669 84.084 43.1894 70.815 54.2338 49.3606L51.1706 47.334C42.2056 64.5694 28.1075 79.6356 21.6185 75.4334C21.5528 75.391 21.488 75.3466 21.4243 75.3004L19.6614 78.7678Z" fill="#F9CB52"/>
<path d="M60.0098 78.4867C51.8966 83.3713 36.7315 70.144 25.7761 48.8617L25.6606 48.6375L28.6984 46.5645C37.5789 63.7609 51.6219 78.8929 58.2193 75.0407L60.0098 78.4867Z" fill="#F4A73E"/>
<path d="M79.9914 39.1445C79.9937 39.2273 79.995 39.3105 79.995 39.3937C79.995 49.8355 62.0884 58.0843 40 58.0843V54.0959C57.7808 53.9973 76.4398 47.8383 76.4398 39.4411C76.4398 39.3421 76.4372 39.2433 76.4318 39.1445H79.9914Z" fill="#E88634"/>
<path d="M59.5514 78.7342C67.376 73.2944 64.7453 51.9522 53.7914 30.6718L53.5962 30.293L50.4757 32.2044L50.4967 32.2452C59.363 49.4696 64.0597 70.73 57.8067 75.2576L59.5514 78.7342Z" fill="#F4A73E"/>
<path d="M59.7629 1.4043C67.5925 6.84001 64.9626 28.1855 54.0066 49.4693L50.9271 47.4753C59.6709 30.2939 64.2414 9.29271 57.9853 4.85781L59.7629 1.4043Z" fill="#F9CB52"/>
</svg>
