<svg width="100" height="70" viewBox="0 0 100 70" fill="none" xmlns="http://www.w3.org/2000/svg">
<g clip-path="url(#clip0)">
<path d="M30.6095 56.5311H27.9022C27.8065 51.9166 27.5428 47.5784 27.1118 43.5133H27.0877L22.9658 56.5311H20.9046L16.8074 43.5133H16.7838C16.4799 47.4162 16.2884 51.7554 16.2089 56.5311H13.7412C13.9002 50.7237 14.2999 45.2793 14.9387 40.1973H18.2941L22.1994 52.1992H22.2235L26.1528 40.1973H29.3634C30.0665 46.1499 30.4819 51.5948 30.6095 56.5311V56.5311ZM42.3505 44.48C41.2482 50.5203 39.7939 54.9093 37.989 57.6489C36.5828 59.7578 35.0421 60.8133 33.3644 60.8133C32.9171 60.8133 32.3652 60.677 31.7113 60.4065V58.95C32.0309 58.9965 32.406 59.0229 32.8371 59.0229C33.6207 59.0229 34.2506 58.8053 34.7309 58.3689C35.3053 57.8375 35.5925 57.24 35.5925 56.5791C35.5925 56.1259 35.3686 55.1993 34.9218 53.7962L31.9509 44.4795H34.6105L36.7429 51.4475C37.2221 53.0296 37.4219 54.1343 37.3419 54.7634C38.508 51.6186 39.3225 48.1896 39.7865 44.4789H42.3505V44.48V44.48Z" fill="#5D87A1"/>
<path d="M78.3879 56.5319H70.6976V40.1981H73.2846V54.5213H78.3879V56.5319ZM68.6846 56.9265L65.711 55.4447C65.9747 55.226 66.2268 54.9893 66.4539 54.7151C67.7178 53.2159 68.3482 50.9987 68.3482 48.062C68.3482 42.6583 66.2483 39.9551 62.0469 39.9551C59.9867 39.9551 58.3796 40.6408 57.2303 42.0127C55.9674 43.513 55.337 45.7223 55.337 48.6431C55.337 51.5143 55.8957 53.6206 57.0137 54.9566C58.0364 56.1668 59.5782 56.7728 61.6399 56.7728C62.4089 56.7728 63.1146 56.6777 63.7576 56.4859L67.6289 58.7617L68.6846 56.9265ZM59.0519 53.2634C58.3969 52.1995 58.0694 50.491 58.0694 48.1355C58.0694 44.0228 59.3066 41.9641 61.7837 41.9641C63.0785 41.9641 64.0275 42.4565 64.6344 43.4391C65.2883 44.5046 65.6174 46.1977 65.6174 48.5206C65.6174 52.667 64.3791 54.7405 61.9035 54.7405C60.6082 54.741 59.6592 54.2503 59.0519 53.2634V53.2634ZM54.2096 52.0046C54.2096 53.3897 53.7064 54.526 52.7009 55.4162C51.6943 56.3026 50.3446 56.7469 48.6533 56.7469C47.0713 56.7469 45.5374 56.2366 44.0527 55.2212L44.748 53.8187C46.0255 54.4647 47.1822 54.7859 48.2206 54.7859C49.1953 54.7859 49.957 54.5678 50.5094 54.1351C51.0613 53.7008 51.3904 53.0917 51.3904 52.3215C51.3904 51.3511 50.7202 50.5217 49.4908 49.827C48.3572 49.1983 46.0899 47.884 46.0899 47.884C44.861 46.9796 44.2458 46.0086 44.2458 44.409C44.2458 43.0851 44.7046 42.0164 45.6227 41.2034C46.5419 40.3872 47.7278 39.9804 49.1817 39.9804C50.6831 39.9804 52.048 40.3867 53.2774 41.1907L52.6538 42.5938C51.6023 42.1427 50.5643 41.9171 49.5405 41.9171C48.7114 41.9171 48.071 42.1184 47.6258 42.5225C47.177 42.9251 46.9002 43.4401 46.9002 44.0719C46.9002 45.0376 47.5845 45.8776 48.8474 46.586C49.9962 47.2157 52.32 48.5528 52.32 48.5528C53.5803 49.4556 54.2096 50.4176 54.2096 52.0046" fill="#F8981D"/>
<path d="M81.6356 34.7276C80.0714 34.6874 78.8603 34.8464 77.8438 35.2807C77.5503 35.399 77.0837 35.399 77.0429 35.7735C77.2014 35.932 77.2197 36.1877 77.3573 36.4064C77.5917 36.801 78.0002 37.332 78.3732 37.6088C78.7829 37.9258 79.1941 38.2395 79.6251 38.5158C80.3853 38.9908 81.2469 39.2671 81.9877 39.7404C82.4193 40.0156 82.8482 40.3717 83.2804 40.668C83.4928 40.826 83.6288 41.0822 83.9045 41.181V41.1208C83.7664 40.9433 83.7271 40.6865 83.5916 40.489L83.0047 39.9174C82.4376 39.1482 81.7329 38.4767 80.9728 37.9252C80.3471 37.4899 78.9785 36.8983 78.7248 36.1703L78.685 36.1301C79.1151 36.0895 79.6251 35.932 80.0337 35.8111C80.6986 35.6341 81.305 35.6742 81.9871 35.4973C82.301 35.418 82.6123 35.3187 82.9272 35.221V35.0429C82.5736 34.6874 82.3214 34.2151 81.9495 33.8791C80.9545 33.0112 79.8579 32.1622 78.7248 31.4517C78.1179 31.056 77.3374 30.8014 76.6913 30.4649C76.4585 30.346 76.0662 30.2874 75.9291 30.0898C75.5786 29.6556 75.3814 29.084 75.1271 28.5699C74.5621 27.4854 74.0133 26.282 73.5258 25.1351C73.1731 24.3659 72.9587 23.5978 72.5286 22.8862C70.5145 19.5316 68.3272 17.4999 64.9655 15.5056C64.243 15.0904 63.3835 14.9134 62.4654 14.6958L60.999 14.6176C60.6861 14.4792 60.3728 14.1036 60.0997 13.9261C58.9843 13.216 56.1128 11.6772 55.2925 13.7089C54.7641 14.9932 56.0741 16.2558 56.524 16.9071C56.8562 17.3593 57.2867 17.8739 57.519 18.3874C57.6566 18.7228 57.6953 19.0789 57.8329 19.4334C58.1457 20.3018 58.4382 21.2681 58.8494 22.0784C59.0639 22.4916 59.2977 22.9258 59.5718 23.2998C59.7288 23.5185 60.0019 23.6152 60.0615 23.9718C59.7889 24.3648 59.7675 24.9581 59.6111 25.4515C58.908 27.6814 59.1826 30.4437 60.1792 32.0825C60.491 32.5759 61.2349 33.662 62.2299 33.2457C63.1109 32.8907 62.9158 31.766 63.169 30.7797C63.2271 30.5415 63.1889 30.3851 63.3061 30.2287V30.2673C63.5786 30.8193 63.8538 31.3513 64.1065 31.905C64.7128 32.8712 65.7685 33.8781 66.6479 34.5474C67.1161 34.9045 67.4871 35.5152 68.0735 35.7334V35.6742H68.0348C67.916 35.4973 67.7424 35.418 67.5865 35.2807C67.2339 34.9251 66.8436 34.4909 66.57 34.0968C65.7507 32.9911 65.0256 31.7671 64.3822 30.504C64.0672 29.8912 63.7957 29.2213 63.542 28.6096C63.4238 28.3734 63.4238 28.0174 63.2276 27.8985C62.9336 28.3322 62.5051 28.7078 62.2906 29.2393C61.9187 30.0893 61.88 31.1347 61.7418 32.2219L61.6649 32.26C61.0424 32.102 60.8258 31.4517 60.5894 30.8996C60.004 29.4976 59.9056 27.2471 60.4136 25.6295C60.5496 25.2159 61.1381 23.9132 60.9032 23.5191C60.7855 23.1413 60.3942 22.9263 60.1797 22.6289C59.9276 22.2549 59.6513 21.7816 59.4756 21.3663C59.0068 20.2617 58.7709 19.0377 58.2661 17.9336C58.0301 17.419 57.6205 16.8865 57.2888 16.4127C56.9163 15.8802 56.5067 15.5051 56.2122 14.8738C56.1149 14.6567 55.9783 14.3017 56.1347 14.0655C56.1729 13.907 56.2525 13.8479 56.4084 13.8082C56.6616 13.5922 57.3851 13.8669 57.6388 13.9858C58.3634 14.2816 58.9692 14.5579 59.5739 14.972C59.8475 15.1702 60.141 15.5452 60.492 15.644H60.9032C61.5274 15.7814 62.231 15.6821 62.8185 15.8606C63.8538 16.1966 64.7918 16.6895 65.633 17.2215C68.1928 18.8607 70.3037 21.1899 71.7287 23.9718C71.9626 24.4251 72.062 24.8403 72.2754 25.3131C72.6871 26.2809 73.1962 27.2677 73.6047 28.2149C74.0154 29.1421 74.4067 30.0887 74.9932 30.859C75.2856 31.2731 76.4606 31.4903 76.9874 31.7074C77.3772 31.8844 77.984 32.0418 78.3356 32.2589C79.0005 32.6726 79.6628 33.1475 80.288 33.6023C80.5992 33.839 81.5775 34.3324 81.6356 34.7276V34.7276ZM61.7005 17.5775C61.4307 17.5747 61.1617 17.6081 60.9006 17.6768V17.7165H60.9383C61.0958 18.0318 61.3694 18.2505 61.5645 18.5258C61.722 18.8422 61.8585 19.156 62.0128 19.4719L62.0505 19.4328C62.3262 19.2358 62.4633 18.9199 62.4633 18.446C62.3445 18.3065 62.3262 18.1702 62.2273 18.0318C62.1122 17.8343 61.8585 17.736 61.7005 17.5775" fill="#5D87A1"/>
<path d="M83.4976 56.529H83.9025V54.5279H83.2951L82.7997 55.8935L82.2614 54.5279H81.6765V56.529H82.0589V55.0065H82.0804L82.6443 56.529H82.9357L83.4976 55.0065V56.529ZM80.2357 56.529H80.6642V54.867H81.225V54.5273H79.6514V54.867H80.2347L80.2357 56.529Z" fill="#F8981D"/>
</g>
<defs>
<clipPath id="clip0">
<rect width="100" height="70" fill="white"/>
</clipPath>
</defs>
</svg>
