<svg width="80" height="80" viewBox="0 0 80 80" fill="none" xmlns="http://www.w3.org/2000/svg">
<path d="M80 40C80 52.862 73.9282 64.3068 64.4947 71.6245C57.7273 76.8752 49.2293 80 40 80C30.8538 80 22.4262 76.9307 15.6881 71.7648C6.15015 64.4555 0 52.9452 0 40C0 17.9086 17.9087 0 40 0C62.0913 0 80 17.9086 80 40Z" fill="#F2F2F2"/>
<path d="M69.0609 18.6675L64.4944 71.6243C57.727 76.875 49.229 79.9998 39.9997 79.9998C30.8535 79.9998 22.4259 76.9304 15.6878 71.7646L11.1099 18.6675H69.0609Z" fill="#E64C18"/>
<path d="M40.0854 23.6328V78.7761L59.1344 73.3985L63.3836 23.6328H40.0854Z" fill="#F36518"/>
<path d="M22.0161 30.5513L23.8839 52.6704H48.7126L47.9003 61.8074L40.0858 63.9237L31.9468 61.6437L31.7424 55.947H24.1611L25.1101 67.1783L40.0858 71.4106L55.0611 67.1783L56.9171 45.2023H30.7699L30.1211 38.04L30.1209 38.0396L57.5353 37.896L58.1553 30.5513H22.0161Z" fill="white"/>
<path d="M23.6187 2.62451V6.42465H19.9877V2.62451H16.6099V13.5178H19.9877V9.97121H23.6187V13.5178H26.9963V2.62451H23.6187Z" fill="black"/>
<path d="M38.9879 2.62451H28.6011V6.42465H31.9789V13.6025H35.6101V6.42465H38.9879V2.62451Z" fill="black"/>
<path d="M58.3257 10.1399V2.70898H54.6943V10.1399V13.6024H58.3257H63.561V10.1399H58.3257Z" fill="black"/>
<path d="M49.2055 2.70898L46.6723 6.59336L44.1388 2.70898H40.5078V13.6024H44.1388V8.19773L46.6723 12.0824L49.2055 8.19773V13.6024H52.8366V2.70898H49.2055Z" fill="black"/>
</svg>
